637619 5336 509
862831 7618 525
442869 104322 449
816799 855673 525
509334 110085 449
102792 237773 443
665570 485322 509
365456 130975 443
762212 209504 509
749572 921477 525
689479 577041 509
873597 700599 525
948419 818913 525
664712 289801 509
200712 527269 470
315118 555342 470
57479 503818 449
611434 374990 470
946084 873099 507
711000 181001 509
51527 197767 383
382378 411570 449
320624 613409 470
918534 612121 525
594813 136309 470
892818 523752 525
185826 55437 383
212498 933715 525
25868 510188 449
539344 356663 470
196930 154094 383
984405 311770 525
4856 171959 383
11243 596232 470
822627 450290 509
901852 18684 525
671113 722883 504
366078 987515 525
258766 382433 441
47289 119231 354
304330 176250 443
444370 925122 525
202424 471682 449
934425 487017 525
261983 583079 470
370538 365069 392
648798 75002 509
101891 613550 470
704023 548992 509
164896 377157 443
734045 116077 509
429816 647390 509
230371 771940 509
715312 670137 504
997678 126434 525
735247 739314 424
262442 29969 443
168320 262097 443
118738 732487 509
55331 713777 509
960751 255976 525
477447 84307 449
529195 868996 525
739093 974502 525
459453 191712 449
299400 629435 509
521284 154997 470
458309 121889 449
115621 3362 354
553940 553834 253
545500 207660 470
196715 376014 443
846671 357977 525
241355 579209 470
406188 921722 525
365534 353163 410
666850 611695 509
553037 257393 470
630380 613183 509
651769 687513 442
468160 566224 470
590785 992701 525
138866 257462 443
685527 627292 442
355606 920762 525
699825 551543 509
286537 826475 509
931755 62501 525
684054 680322 380
165315 381973 443
893034 357953 525
411083 296085 449
841420 901954 445
297235 989290 525
114658 876387 525
496842 725181 509
195767 834691 509
269783 462161 449
7381 892891 525
316972 754002 509
726413 448224 509
870498 81084 525
880680 231842 525
557449 167068 470
728020 219309 509
890412 345503 525
582064 152337 470
843556 841627 388
774263 815174 468
330441 294813 384
531219 136333 470
498650 508177 426
668679 433149 509
395290 392515 405
725087 355375 509
660538 273477 509
629805 746907 504
865976 413924 525
88229 206849 383
49226 146172 375
643185 742125 504
398202 321477 441
744162 810279 468
421337 761751 509
45052 772568 509
724200 456312 509
251496 250148 332
909956 499112 525
167521 788165 509
540258 219673 470
725299 640493 504
67972 273329 443
173608 963684 525
476599 564822 470
889920 878794 445
761265 596170 509
253233 671936 509
350287 182835 443
124001 596447 470
889047 546280 525
879104 443576 525
863408 37883 525
79314 314539 443
687950 542629 509
92501 819376 509
265902 915518 525
333444 894988 525
297495 842679 525
889761 111658 525
781742 146053 509
734013 840515 525
60695 292642 443
74783 94949 351
433393 544030 470
142501 292198 443
685994 615218 509
972717 452470 525
683953 350746 509
905279 260217 525
29585 876141 525
851064 92209 525
306104 211216 443
251994 865665 525
283236 655780 509
273714 311358 389
615742 708145 509
487517 124350 449
705198 538569 509
883456 976271 507
126914 303056 443
451809 402861 449
465272 914515 525
161983 918776 525
47343 163616 383
657403 465426 509
979297 123318 525
797862 777313 468
337590 121690 443
321784 875584 525
921410 825588 525
456870 753570 509
105152 140935 354
471241 196936 449
535325 38431 470
75382 166626 383
86597 636483 509
414073 54461 449
650918 586399 509
228178 46016 386
662872 374774 509
708059 671951 504
140948 624555 470
419109 418547 312
645854 191999 509
617924 108174 470
56919 885998 525
922834 390411 525
869752 860385 388
270626 388135 441
814580 749198 468
524754 92744 470
931730 894719 476
742675 437173 509
257975 828803 509
890411 466284 525
328483 405592 441
711710 982701 525
902968 561635 525
769675 517506 509
22192 580567 470
723234 979518 525
835380 954519 525
742085 197331 509
207618 456163 449
33519 780934 509
317128 225666 443
448292 549470 470
888928 295455 525
779263 807439 468
548716 643681 509
459867 442626 387
193432 125691 383
317829 131502 443
566724 576933 377
153550 266153 443
517629 937931 525
6437 719030 509
743313 723302 424
945886 957975 414
14654 132870 354
845772 671268 525
759787 838811 525
466315 97297 449
659502 841467 525
448030 821182 509
397534 212685 443
479823 218831 449
40055 327187 443
495161 496955 320
699755 209042 509
911387 684837 525
742410 806925 468
890336 147866 525
420232 160559 449
191299 257281 443
849793 32952 525
96664 856023 525
284291 966662 525
40889 627617 509
916944 539277 525
459398 372809 449
878237 239278 525
864795 195647 525
404299 236925 441
506869 557721 470
818159 733252 468
361095 438713 449
79610 783539 509
457241 434489 400
607708 995886 525
972298 349374 525
486880 142131 449
381757 893237 525
881313 126122 525
927015 734306 525
110046 706606 509
852677 361556 525
728342 919941 525
400901 753003 509
298569 989791 525
704908 964598 525
917394 817133 525
44062 857542 525
538012 402646 470
436279 98965 449
882306 271638 525
906113 190509 525
416944 382822 449
729751 228390 509
964083 949315 414
412116 435043 418
611888 604847 403
444233 429005 400
217168 292396 443
975048 77707 525
494988 869549 525
947582 971953 458
506174 100682 449
134629 371861 443
221393 550667 470
224206 561443 470
283295 551095 470
141973 560972 470
875051 248374 525
896507 126317 525
870814 728677 525
149042 77716 375
82550 537744 470
113542 118665 349
993862 968291 458
