915861 487051 525
426948 949093 525
365842 145336 443
239334 313284 407
607422 414976 470
639497 37561 509
272654 968439 525
642270 1881 509
861612 467350 525
374021 318162 441
335330 755349 509
862255 431081 525
155196 158903 383
407729 27481 443
631767 610201 509
16112 958565 525
18715 246168 443
181785 101524 383
347216 635612 509
744023 608143 509
496532 324981 449
826119 96155 509
907717 881132 445
457963 192700 449
991030 469094 525
435053 430210 387
172174 168047 334
882881 612145 525
146068 449658 449
686543 797198 504
896782 121766 525
804080 381196 509
392960 733111 509
494031 651027 509
103480 866121 525
384392 769306 509
319909 640357 509
228674 687448 509
53930 596302 470
778251 20846 509
742211 273914 509
566196 726655 509
667210 274607 509
831714 79717 509
525320 530977 408
362832 850844 525
146721 839929 525
476772 547822 470
661121 745277 504
263737 89227 443
968978 274231 525
343961 623215 470
700759 132601 509
354778 529580 470
811480 231459 509
437806 770631 509
84422 322198 443
770898 855522 525
251566 739657 509
927642 551448 525
282249 926357 525
113375 346231 443
851596 354616 525
685026 611531 509
354588 134781 443
783136 554969 509
509070 33565 449
85178 3650 351
155405 551071 470
871077 183426 525
758206 95023 509
778577 965182 525
60657 98564 351
907290 509540 525
105648 440541 449
694635 84736 509
892394 961524 507
803943 253585 509
928846 212685 525
62822 146091 375
57373 690910 509
918812 359991 525
374465 336094 441
965920 818274 525
532085 891237 525
540380 551884 452
862724 346841 525
591322 568857 434
434605 415281 418
347984 734685 509
392120 38558 443
843975 508430 525
626376 625859 509
749110 816105 468
263160 796968 509
157640 569120 470
727541 274506 509
865967 998968 507
25264 388723 443
726064 102286 509
221578 895622 525
922593 17840 525
782581 188877 509
879417 174706 525
948267 998476 458
145749 600933 470
584256 682022 509
700404 759291 504
525015 136718 470
745814 802816 468
24995 222622 386
897053 896665 282
129891 334381 443
422790 65482 449
902770 5746 525
510438 273286 449
373822 181972 443
968473 747544 525
361912 176856 443
985762 250494 525
560728 761902 509
893862 154736 525
764407 758084 380
13799 725754 509
712168 279364 509
669596 634283 442
530224 506481 470
813820 238407 509
908305 719511 525
174012 631395 509
890803 646996 525
818073 608884 509
306928 960978 525
689335 941333 525
459441 864541 525
938731 34240 525
561937 899199 525
563747 840745 525
559550 13922 470
946775 66568 525
556531 503340 470
877816 448650 525
624843 666632 509
734594 976715 525
927580 598088 525
197517 866197 525
780973 309294 509
537000 270490 470
191314 696848 509
168351 934840 525
835734 960663 525
940171 85805 525
461203 880735 525
448698 523513 470
390170 147993 443
284993 563370 470
760666 832459 468
732781 801506 468
974625 326791 525
215350 564071 470
25634 889549 525
768486 46362 509
468203 874472 525
829464 548231 509
566714 299627 470
17037 325531 443
854402 9449 525
308243 683298 509
857047 886061 432
506931 690997 509
632493 62599 509
530539 898389 525
781958 63974 509
914170 375212 525
86873 741408 509
996954 297670 525
94518 396952 443
546751 889516 525
847014 472119 525
657129 948435 525
324285 555366 470
893448 61498 525
272655 950465 525
794399 782552 437
482064 377632 449
254839 831159 509
611817 129930 470
237195 808265 509
180339 148787 383
262188 176926 443
779792 551135 509
960416 576110 525
671088 839267 525
423481 644965 509
366473 592955 470
967773 162124 525
501881 382594 449
634221 472798 509
872211 445678 525
621791 129985 470
624666 593768 447
220252 981062 525
490360 983501 525
247232 677734 509
800726 462425 509
481262 255556 449
991267 778290 525
398843 100413 443
988423 356011 525
339973 763309 509
274040 433643 449
293483 5554 443
925164 421914 525
211796 473710 449
985525 194025 525
772496 344885 509
853358 465150 525
44431 539698 470
478575 540023 470
144955 135912 375
957942 229743 525
975156 461119 525
335797 39120 443
527162 849307 525
921104 811445 525
568928 946615 525
850388 566604 525
550378 868705 525
83884 105154 341
847266 94979 525
212076 206554 373
297289 738809 509
661986 37237 509
345968 492791 449
630746 506464 509
942780 702716 525
969248 44848 525
230740 123503 443
23273 607317 470
744437 422577 509
416859 838611 525
876037 839760 432
82389 177776 383
802535 661319 504
324777 818215 509
512804 947561 525
380398 507947 449
926215 960664 507
151259 67028 375
57800 9459 340
